{
	"version": 1,
	"changelists": [
		{
			"guid": "00000000000000000000000000000000",
			"description": "Default Uncontrolled Changelist",
			"files": [
				"C:/Users/danna/Documents/Unreal Projects/BotTeamsTest/Content/StarterContent/HDRI/HDRI_Epic_Courtyard_Daylight.uasset",
				"C:/Users/danna/Documents/Unreal Projects/BotTeamsTest/Content/FirstPerson/Blueprints/BP_FirstPersonProjectile.uasset",
				"C:/Users/danna/Documents/Unreal Projects/BotTeamsTest/Content/UI/UWs/UW_HUD.uasset",
				"C:/Users/danna/Documents/Unreal Projects/BotTeamsTest/Content/FirstPerson/Blueprints/BP_FirstPersonCharacter.uasset",
				"C:/Users/danna/Documents/Unreal Projects/BotTeamsTest/Content/AI/EQS/EQS_Shelter.uasset",
				"C:/Users/danna/Documents/Unreal Projects/BotTeamsTest/Content/AI/Blueprints/BP_AICharacter.uasset",
				"C:/Users/danna/Documents/Unreal Projects/BotTeamsTest/Content/AI/Blueprints/BP_MainAIController.uasset",
				"C:/Users/danna/Documents/Unreal Projects/BotTeamsTest/Content/AI/Behavior/BTD_IsFocused.uasset",
				"C:/Users/danna/Documents/Unreal Projects/BotTeamsTest/Content/AI/Blueprints/Interfaces/BP_EnemyAI_Interface.uasset",
				"C:/Users/danna/Documents/Unreal Projects/BotTeamsTest/Content/AI/Behavior/BTT_FireTo.uasset",
				"C:/Users/danna/Documents/Unreal Projects/BotTeamsTest/Content/AI/Behavior/BTD_Ammo.uasset",
				"C:/Users/danna/Documents/Unreal Projects/BotTeamsTest/Content/AI/EQS/Context/EQS_Context_Player.uasset",
				"C:/Users/danna/Documents/Unreal Projects/BotTeamsTest/Content/__ExternalActors__/FirstPerson/Maps/FirstPersonMap/2/12/1PA6R9VBAXTJTP8OMZBQ16.uasset",
				"C:/Users/danna/Documents/Unreal Projects/BotTeamsTest/Content/__ExternalActors__/FirstPerson/Maps/FirstPersonMap/5/1B/7AHCXDM5VQQ3M55AL7DVB3.uasset",
				"C:/Users/danna/Documents/Unreal Projects/BotTeamsTest/Content/AI/EQS/EQS_ClearLine.uasset",
				"C:/Users/danna/Documents/Unreal Projects/BotTeamsTest/Content/AI/Behavior/BTT_Reload.uasset",
				"C:/Users/danna/Documents/Unreal Projects/BotTeamsTest/Content/__ExternalActors__/FirstPerson/Maps/FirstPersonMap/8/Z7/W1SXRCM1KAKBJOIZDLHZ47.uasset",
				"C:/Users/danna/Documents/Unreal Projects/BotTeamsTest/Content/AI/Blueprints/BP_CaverPoint.uasset",
				"C:/Users/danna/Documents/Unreal Projects/BotTeamsTest/Content/__ExternalActors__/FirstPerson/Maps/FirstPersonMap/E/OY/OML8N46132TL4BOPA7YX5J.uasset",
				"C:/Users/danna/Documents/Unreal Projects/BotTeamsTest/Content/__ExternalActors__/FirstPerson/Maps/FirstPersonMap/8/EB/RFV2W66S9SBN4DUZVLC8NR.uasset",
				"C:/Users/danna/Documents/Unreal Projects/BotTeamsTest/Content/AI/Behavior/BT_Defance.uasset",
				"C:/Users/danna/Documents/Unreal Projects/BotTeamsTest/Content/AI/EQS/EQS_AttackLine.uasset",
				"C:/Users/danna/Documents/Unreal Projects/BotTeamsTest/Content/AI/Behavior/BT_Attack.uasset",
				"C:/Users/danna/Documents/Unreal Projects/BotTeamsTest/Content/AI/Behavior/BB_Main.uasset",
				"C:/Users/danna/Documents/Unreal Projects/BotTeamsTest/Content/AI/EQS/Context/EQS_Context_TrackedEnemy.uasset",
				"C:/Users/danna/Documents/Unreal Projects/BotTeamsTest/Content/__ExternalActors__/FirstPerson/Maps/FirstPersonMap/5/80/QQN0UFFAA797E1UT4IMD29.uasset",
				"C:/Users/danna/Documents/Unreal Projects/BotTeamsTest/Content/__ExternalActors__/FirstPerson/Maps/FirstPersonMap/6/7Z/7EHFAZ5HVWXAWQ04QO5TH0.uasset",
				"C:/Users/danna/Documents/Unreal Projects/BotTeamsTest/Content/__ExternalActors__/FirstPerson/Maps/FirstPersonMap/8/CW/6HT16P8P5RAXNJG3EVYWE9.uasset",
				"C:/Users/danna/Documents/Unreal Projects/BotTeamsTest/Content/__ExternalActors__/FirstPerson/Maps/FirstPersonMap/9/VP/FVTPO8KZ0WPMCSQLVJE6O9.uasset",
				"C:/Users/danna/Documents/Unreal Projects/BotTeamsTest/Content/__ExternalActors__/FirstPerson/Maps/FirstPersonMap/E/UE/YUZ9741T50O1SYRX90OB0S.uasset",
				"C:/Users/danna/Documents/Unreal Projects/BotTeamsTest/Content/__ExternalActors__/FirstPerson/Maps/FirstPersonMap/4/H8/GFPX1GSPQ4226RYLMXZONX.uasset",
				"C:/Users/danna/Documents/Unreal Projects/BotTeamsTest/Content/__ExternalActors__/FirstPerson/Maps/FirstPersonMap/D/1U/HWDXH3OAPA3CMZEX1P85XP.uasset",
				"C:/Users/danna/Documents/Unreal Projects/BotTeamsTest/Content/__ExternalActors__/FirstPerson/Maps/FirstPersonMap/1/X2/HGXGB6XZ9Q5WG4SYVKKULX.uasset",
				"C:/Users/danna/Documents/Unreal Projects/BotTeamsTest/Content/__ExternalActors__/FirstPerson/Maps/FirstPersonMap/B/2P/1JY7GHXCJFD6VUHYZ4346F.uasset",
				"C:/Users/danna/Documents/Unreal Projects/BotTeamsTest/Content/__ExternalActors__/FirstPerson/Maps/FirstPersonMap/C/ZN/M09FKMH58S36J6AZQA80TZ.uasset",
				"C:/Users/danna/Documents/Unreal Projects/BotTeamsTest/Content/__ExternalActors__/FirstPerson/Maps/FirstPersonMap/C/30/7XFOBH8BTIG7YFOOHVVIIV.uasset",
				"C:/Users/danna/Documents/Unreal Projects/BotTeamsTest/Content/__ExternalActors__/FirstPerson/Maps/FirstPersonMap/2/D7/0MTGU3FCWKJDJNHENRZRUL.uasset",
				"C:/Users/danna/Documents/Unreal Projects/BotTeamsTest/Content/__ExternalActors__/FirstPerson/Maps/FirstPersonMap/0/3T/C23LSV8NA64QNYYLBB1RH7.uasset",
				"C:/Users/danna/Documents/Unreal Projects/BotTeamsTest/Content/__ExternalActors__/FirstPerson/Maps/FirstPersonMap/6/WQ/XI4E8C8E56FMHS9F7D5EX7.uasset",
				"C:/Users/danna/Documents/Unreal Projects/BotTeamsTest/Content/__ExternalActors__/FirstPerson/Maps/FirstPersonMap/5/GZ/AP8RCA57L3CJH34DU0K20C.uasset",
				"C:/Users/danna/Documents/Unreal Projects/BotTeamsTest/Content/__ExternalActors__/FirstPerson/Maps/FirstPersonMap/F/0G/T233P6Z4QU5087MNK8OBFM.uasset",
				"C:/Users/danna/Documents/Unreal Projects/BotTeamsTest/Content/__ExternalActors__/FirstPerson/Maps/FirstPersonMap/8/H2/OCWYNVN87APIPCEUKAEJKG.uasset",
				"C:/Users/danna/Documents/Unreal Projects/BotTeamsTest/Content/AI/Behavior/BT_RUUUUN.uasset",
				"C:/Users/danna/Documents/Unreal Projects/BotTeamsTest/Content/__ExternalActors__/FirstPerson/Maps/FirstPersonMap/0/XV/VTAF5COFGLO9YT51MQCVTR.uasset",
				"C:/Users/danna/Documents/Unreal Projects/BotTeamsTest/Content/__ExternalActors__/FirstPerson/Maps/FirstPersonMap/1/63/MG6FOV6QQX2CAZCGF7O9MM.uasset",
				"C:/Users/danna/Documents/Unreal Projects/BotTeamsTest/Content/__ExternalActors__/FirstPerson/Maps/FirstPersonMap/1/JT/XIHYQ8ZTVL6F9GCUZX1AQ2.uasset",
				"C:/Users/danna/Documents/Unreal Projects/BotTeamsTest/Content/__ExternalActors__/FirstPerson/Maps/FirstPersonMap/3/AI/0XWE3RNM2XQC0ST1KXG02O.uasset",
				"C:/Users/danna/Documents/Unreal Projects/BotTeamsTest/Content/__ExternalActors__/FirstPerson/Maps/FirstPersonMap/6/7T/GM0EQ2Z7BN3RV91M3TA1BD.uasset",
				"C:/Users/danna/Documents/Unreal Projects/BotTeamsTest/Content/__ExternalActors__/FirstPerson/Maps/FirstPersonMap/6/AJ/2XZ3RUK0LFB63FVNQE7P5R.uasset",
				"C:/Users/danna/Documents/Unreal Projects/BotTeamsTest/Content/__ExternalActors__/FirstPerson/Maps/FirstPersonMap/7/5X/6EW8RE9VA2GGHRWK614FCI.uasset",
				"C:/Users/danna/Documents/Unreal Projects/BotTeamsTest/Content/__ExternalActors__/FirstPerson/Maps/FirstPersonMap/7/DF/1GID8P6B00XRWKYCXU7HT1.uasset",
				"C:/Users/danna/Documents/Unreal Projects/BotTeamsTest/Content/__ExternalActors__/FirstPerson/Maps/FirstPersonMap/7/I8/LH9T10MU22N3EEPTZ4GAFC.uasset",
				"C:/Users/danna/Documents/Unreal Projects/BotTeamsTest/Content/__ExternalActors__/FirstPerson/Maps/FirstPersonMap/7/L5/1ZJ54FMA0DAL3I2Q8RFAIB.uasset",
				"C:/Users/danna/Documents/Unreal Projects/BotTeamsTest/Content/__ExternalActors__/FirstPerson/Maps/FirstPersonMap/8/SZ/D1AHM62WL9TXSNPYQDXQMZ.uasset",
				"C:/Users/danna/Documents/Unreal Projects/BotTeamsTest/Content/__ExternalActors__/FirstPerson/Maps/FirstPersonMap/A/XJ/HL558UUAGCS9HVVOI0S7PX.uasset",
				"C:/Users/danna/Documents/Unreal Projects/BotTeamsTest/Content/__ExternalActors__/FirstPerson/Maps/FirstPersonMap/C/P8/0GJ9TLQE2YKOIFZ6YHG33H.uasset",
				"C:/Users/danna/Documents/Unreal Projects/BotTeamsTest/Content/__ExternalActors__/FirstPerson/Maps/FirstPersonMap/F/2F/0SPQG8P507LI9VUAFG20OA.uasset",
				"C:/Users/danna/Documents/Unreal Projects/BotTeamsTest/Content/__ExternalActors__/FirstPerson/Maps/FirstPersonMap/3/WZ/8MMHOJ6Y9060MXXL6ZKBV9.uasset",
				"C:/Users/danna/Documents/Unreal Projects/BotTeamsTest/Content/__ExternalActors__/FirstPerson/Maps/FirstPersonMap/B/P9/HIV3TD0RIXD0VTBPK9ROVQ.uasset",
				"C:/Users/danna/Documents/Unreal Projects/BotTeamsTest/Content/__ExternalActors__/FirstPerson/Maps/FirstPersonMap/0/RE/521VUVY5G2Y4ALY8NIT7E9.uasset",
				"C:/Users/danna/Documents/Unreal Projects/BotTeamsTest/Content/__ExternalActors__/FirstPerson/Maps/FirstPersonMap/1/94/SMZ570T2PZEVHPBFG8CI0M.uasset",
				"C:/Users/danna/Documents/Unreal Projects/BotTeamsTest/Content/__ExternalActors__/FirstPerson/Maps/FirstPersonMap/2/08/9N0V2JJGVR7RBSOPWV1NST.uasset",
				"C:/Users/danna/Documents/Unreal Projects/BotTeamsTest/Content/__ExternalActors__/FirstPerson/Maps/FirstPersonMap/B/NB/JTC4GO7OIKYB6CIAU8WDML.uasset",
				"C:/Users/danna/Documents/Unreal Projects/BotTeamsTest/Content/__ExternalActors__/FirstPerson/Maps/FirstPersonMap/5/A9/0UPI7XKHCM90OQ4N1XIVS8.uasset",
				"C:/Users/danna/Documents/Unreal Projects/BotTeamsTest/Content/__ExternalActors__/FirstPerson/Maps/FirstPersonMap/F/1B/5C6QER35CFRXUU2XY9V1RP.uasset",
				"C:/Users/danna/Documents/Unreal Projects/BotTeamsTest/Content/__ExternalActors__/FirstPerson/Maps/FirstPersonMap/D/W7/VHYKIF6TOLH4AGDAN48MXN.uasset",
				"C:/Users/danna/Documents/Unreal Projects/BotTeamsTest/Content/__ExternalActors__/FirstPerson/Maps/FirstPersonMap/5/9F/I64F3IKK38DUVSE0V39561.uasset",
				"C:/Users/danna/Documents/Unreal Projects/BotTeamsTest/Content/__ExternalActors__/FirstPerson/Maps/FirstPersonMap/E/DN/9DHSBZLC468M59V4NDLXOM.uasset",
				"C:/Users/danna/Documents/Unreal Projects/BotTeamsTest/Content/__ExternalActors__/FirstPerson/Maps/FirstPersonMap/C/3K/XMTQLQ1TMCJXC9758MLW7K.uasset",
				"C:/Users/danna/Documents/Unreal Projects/BotTeamsTest/Content/__ExternalActors__/FirstPerson/Maps/FirstPersonMap/D/6Y/JUGRZWVY7WLK7CLWO8D0FD.uasset",
				"C:/Users/danna/Documents/Unreal Projects/BotTeamsTest/Content/__ExternalActors__/FirstPerson/Maps/FirstPersonMap/5/CI/VSSHGFHIO5BE0JZEPCCUL5.uasset",
				"C:/Users/danna/Documents/Unreal Projects/BotTeamsTest/Content/__ExternalActors__/FirstPerson/Maps/FirstPersonMap/9/CC/669FF3JQQS79LJEU3T0HZ4.uasset",
				"C:/Users/danna/Documents/Unreal Projects/BotTeamsTest/Content/__ExternalActors__/FirstPerson/Maps/FirstPersonMap/8/H4/A0Y97L8NI1B06WYTBS03N9.uasset",
				"C:/Users/danna/Documents/Unreal Projects/BotTeamsTest/Content/__ExternalActors__/FirstPerson/Maps/FirstPersonMap/4/RO/4Q7BJ6T5JSWM0D8DO3MFIN.uasset",
				"C:/Users/danna/Documents/Unreal Projects/BotTeamsTest/Content/__ExternalActors__/FirstPerson/Maps/FirstPersonMap/5/4U/D7ODGBCAZS0NQII9IM91BN.uasset",
				"C:/Users/danna/Documents/Unreal Projects/BotTeamsTest/Content/__ExternalActors__/FirstPerson/Maps/FirstPersonMap/3/QG/WAHBFO1NEVU8FY15TROVGZ.uasset",
				"C:/Users/danna/Documents/Unreal Projects/BotTeamsTest/Content/__ExternalActors__/FirstPerson/Maps/FirstPersonMap/A/WD/EZCST409HLCHJTDRH3L62B.uasset",
				"C:/Users/danna/Documents/Unreal Projects/BotTeamsTest/Content/__ExternalActors__/FirstPerson/Maps/FirstPersonMap/1/E9/ZM660OR5Q5PZYNFEHCRH96.uasset",
				"C:/Users/danna/Documents/Unreal Projects/BotTeamsTest/Content/__ExternalActors__/FirstPerson/Maps/FirstPersonMap/0/78/4AEYZEE76VMLXV5WNS0QSB.uasset",
				"C:/Users/danna/Documents/Unreal Projects/BotTeamsTest/Content/__ExternalActors__/FirstPerson/Maps/FirstPersonMap/2/LH/0P897VHV32P1HVHFYWFP5H.uasset",
				"C:/Users/danna/Documents/Unreal Projects/BotTeamsTest/Content/__ExternalActors__/FirstPerson/Maps/FirstPersonMap/3/0J/9O0IUOPF79GO3PIYW810K6.uasset",
				"C:/Users/danna/Documents/Unreal Projects/BotTeamsTest/Content/__ExternalActors__/FirstPerson/Maps/FirstPersonMap/A/NW/X9XWANL9H7ZHZQVW13QASA.uasset",
				"C:/Users/danna/Documents/Unreal Projects/BotTeamsTest/Content/__ExternalActors__/FirstPerson/Maps/FirstPersonMap/4/X3/KFTF9CKXRJSCO67VQ4EVXM.uasset",
				"C:/Users/danna/Documents/Unreal Projects/BotTeamsTest/Content/__ExternalActors__/FirstPerson/Maps/FirstPersonMap/1/9P/AUOZQ2VFPB9G4BK1NARO00.uasset",
				"C:/Users/danna/Documents/Unreal Projects/BotTeamsTest/Content/__ExternalActors__/FirstPerson/Maps/FirstPersonMap/1/2N/4KTP9LM4T3R6JBFXK488CD.uasset",
				"C:/Users/danna/Documents/Unreal Projects/BotTeamsTest/Content/__ExternalActors__/FirstPerson/Maps/FirstPersonMap/7/DJ/E9NQKY37BENN7MHVXW3S1C.uasset",
				"C:/Users/danna/Documents/Unreal Projects/BotTeamsTest/Content/__ExternalActors__/FirstPerson/Maps/FirstPersonMap/9/41/OD0DUSSFZCWCQG590HANLW.uasset",
				"C:/Users/danna/Documents/Unreal Projects/BotTeamsTest/Content/__ExternalActors__/FirstPerson/Maps/FirstPersonMap/8/I6/ODIQIQA7R14IWZVJQIOV9T.uasset",
				"C:/Users/danna/Documents/Unreal Projects/BotTeamsTest/Content/__ExternalActors__/FirstPerson/Maps/FirstPersonMap/4/3H/OUB1CKJMNGMBP9SYBYALVP.uasset",
				"C:/Users/danna/Documents/Unreal Projects/BotTeamsTest/Content/__ExternalActors__/FirstPerson/Maps/FirstPersonMap/6/70/OSEKB309MQRUWLGOFC2WJE.uasset",
				"C:/Users/danna/Documents/Unreal Projects/BotTeamsTest/Content/__ExternalActors__/FirstPerson/Maps/FirstPersonMap/2/CJ/DPN126FX0OSFTQ7H1R3R9M.uasset",
				"C:/Users/danna/Documents/Unreal Projects/BotTeamsTest/Content/__ExternalActors__/FirstPerson/Maps/FirstPersonMap/E/TV/N4GNB4V8B2GLA3Z2JI6EYE.uasset",
				"C:/Users/danna/Documents/Unreal Projects/BotTeamsTest/Content/__ExternalActors__/FirstPerson/Maps/FirstPersonMap/7/M5/UO3929U23POB9FEH9LW9P2.uasset",
				"C:/Users/danna/Documents/Unreal Projects/BotTeamsTest/Content/__ExternalActors__/FirstPerson/Maps/FirstPersonMap/5/XO/W5LDN5I12FL94UZFMPS3HR.uasset",
				"C:/Users/danna/Documents/Unreal Projects/BotTeamsTest/Content/__ExternalActors__/FirstPerson/Maps/FirstPersonMap/B/0M/JB0KPIGSPK3M3MFEH1ZMNJ.uasset",
				"C:/Users/danna/Documents/Unreal Projects/BotTeamsTest/Content/__ExternalActors__/FirstPerson/Maps/FirstPersonMap/C/I7/CVOPC2USR4BMOE1DCA5POZ.uasset",
				"C:/Users/danna/Documents/Unreal Projects/BotTeamsTest/Content/__ExternalActors__/FirstPerson/Maps/FirstPersonMap/4/0E/NKOWI39FH07EWJOVU0EKPY.uasset",
				"C:/Users/danna/Documents/Unreal Projects/BotTeamsTest/Content/__ExternalActors__/FirstPerson/Maps/FirstPersonMap/1/JL/G764SD1LC16G7TWA0WEBOU.uasset",
				"C:/Users/danna/Documents/Unreal Projects/BotTeamsTest/Content/__ExternalActors__/FirstPerson/Maps/FirstPersonMap/C/SE/40RCDEZROL83JU1P8XFDYG.uasset",
				"C:/Users/danna/Documents/Unreal Projects/BotTeamsTest/Content/__ExternalActors__/FirstPerson/Maps/FirstPersonMap/A/NQ/PEDYW7RKERHQGECQZHXFK6.uasset",
				"C:/Users/danna/Documents/Unreal Projects/BotTeamsTest/Content/__ExternalActors__/FirstPerson/Maps/FirstPersonMap/7/BQ/YSC290N7ADJYD9XUO7HC6S.uasset",
				"C:/Users/danna/Documents/Unreal Projects/BotTeamsTest/Content/__ExternalActors__/FirstPerson/Maps/FirstPersonMap/1/IZ/Z46BN0PW6MU22LA547UILW.uasset",
				"C:/Users/danna/Documents/Unreal Projects/BotTeamsTest/Content/__ExternalActors__/FirstPerson/Maps/FirstPersonMap/9/GP/O2G2U4YT19DZ35V7BAIIZR.uasset",
				"C:/Users/danna/Documents/Unreal Projects/BotTeamsTest/Content/__ExternalActors__/FirstPerson/Maps/FirstPersonMap/8/OK/FJD9F4HZLHTAJ1ZCDXPCVA.uasset",
				"C:/Users/danna/Documents/Unreal Projects/BotTeamsTest/Content/__ExternalActors__/FirstPerson/Maps/FirstPersonMap/9/I5/K3OH3VY88ERI2GGN8H6ERT.uasset",
				"C:/Users/danna/Documents/Unreal Projects/BotTeamsTest/Content/__ExternalActors__/FirstPerson/Maps/FirstPersonMap/5/BD/A7QB3G3P4UC3P8U0QZQPM2.uasset",
				"C:/Users/danna/Documents/Unreal Projects/BotTeamsTest/Content/__ExternalActors__/FirstPerson/Maps/FirstPersonMap/B/SI/B5SDZ0PYLI6LTEV9VWEM3E.uasset",
				"C:/Users/danna/Documents/Unreal Projects/BotTeamsTest/Content/__ExternalActors__/FirstPerson/Maps/FirstPersonMap/9/0J/UFJD7EVP6ADPRFQ2K8SASG.uasset",
				"C:/Users/danna/Documents/Unreal Projects/BotTeamsTest/Content/__ExternalActors__/FirstPerson/Maps/FirstPersonMap/5/BK/6RH64MT7CF6B3DITYXZCC4.uasset",
				"C:/Users/danna/Documents/Unreal Projects/BotTeamsTest/Content/__ExternalActors__/FirstPerson/Maps/FirstPersonMap/E/1L/SFBN27VUU3E0Q1L60I8P0O.uasset",
				"C:/Users/danna/Documents/Unreal Projects/BotTeamsTest/Content/__ExternalActors__/FirstPerson/Maps/FirstPersonMap/8/9I/EXUDTP6CTTAAOFD1DLSJCP.uasset",
				"C:/Users/danna/Documents/Unreal Projects/BotTeamsTest/Content/__ExternalActors__/FirstPerson/Maps/FirstPersonMap/1/M2/JPMVJEX9LDYCCMJ4QGFJFM.uasset",
				"C:/Users/danna/Documents/Unreal Projects/BotTeamsTest/Content/__ExternalActors__/FirstPerson/Maps/FirstPersonMap/6/0K/QUZ4HRJGAOIYVN29QUF67Y.uasset",
				"C:/Users/danna/Documents/Unreal Projects/BotTeamsTest/Content/__ExternalActors__/FirstPerson/Maps/FirstPersonMap/E/3T/2HDAY4LBI7GJYKVRUDF5RR.uasset",
				"C:/Users/danna/Documents/Unreal Projects/BotTeamsTest/Content/__ExternalActors__/FirstPerson/Maps/FirstPersonMap/3/NV/CHICG9571UQQ7I4NJ1ESIW.uasset",
				"C:/Users/danna/Documents/Unreal Projects/BotTeamsTest/Content/__ExternalActors__/FirstPerson/Maps/FirstPersonMap/4/H3/TKQK0H0PBCC522P2DGR0FB.uasset",
				"C:/Users/danna/Documents/Unreal Projects/BotTeamsTest/Content/__ExternalActors__/FirstPerson/Maps/FirstPersonMap/3/64/YAE1VLH27WQ1PBFKVMFTCA.uasset",
				"C:/Users/danna/Documents/Unreal Projects/BotTeamsTest/Content/__ExternalActors__/FirstPerson/Maps/FirstPersonMap/7/Q5/JKN2S46DDJ2ZWG0V604O7G.uasset",
				"C:/Users/danna/Documents/Unreal Projects/BotTeamsTest/Content/__ExternalActors__/FirstPerson/Maps/FirstPersonMap/0/WY/IS8P8I8UH1GJORC4T3BD8T.uasset",
				"C:/Users/danna/Documents/Unreal Projects/BotTeamsTest/Content/__ExternalActors__/FirstPerson/Maps/FirstPersonMap/8/S7/O1B9D4KZII3J0J61QLQ9C6.uasset",
				"C:/Users/danna/Documents/Unreal Projects/BotTeamsTest/Content/__ExternalActors__/FirstPerson/Maps/FirstPersonMap/A/R1/37IZ9S40AIPMTYVMQNOS2J.uasset",
				"C:/Users/danna/Documents/Unreal Projects/BotTeamsTest/Content/__ExternalActors__/FirstPerson/Maps/FirstPersonMap/0/7N/Z1KUZXHRF8KQN96LZC7I29.uasset",
				"C:/Users/danna/Documents/Unreal Projects/BotTeamsTest/Content/__ExternalActors__/FirstPerson/Maps/FirstPersonMap/4/JR/RSAU4JS02Q6H9RWB77APR0.uasset",
				"C:/Users/danna/Documents/Unreal Projects/BotTeamsTest/Content/__ExternalActors__/FirstPerson/Maps/FirstPersonMap/B/59/694ONJ6FHUNCD30PUWHSU3.uasset",
				"C:/Users/danna/Documents/Unreal Projects/BotTeamsTest/Content/AI/Blueprints/Interfaces/BP_AIController_Interface.uasset",
				"C:/Users/danna/Documents/Unreal Projects/BotTeamsTest/Content/AI/Blueprints/Interfaces/E_BehaviorModes.uasset",
				"C:/Users/danna/Documents/Unreal Projects/BotTeamsTest/Content/AI/EQS/Generators/BP_EQSGenerator_Covers.uasset",
				"C:/Users/danna/Documents/Unreal Projects/BotTeamsTest/Content/AI/Blueprints/BP_SecTeamAIController.uasset",
				"C:/Users/danna/Documents/Unreal Projects/BotTeamsTest/Content/AI/Blueprints/BP_AICharacter_TeamB.uasset",
				"C:/Users/danna/Documents/Unreal Projects/BotTeamsTest/Content/__ExternalActors__/FirstPerson/Maps/FirstPersonMap/3/53/75QYPAZAZ9QT7FVOOKBTO9.uasset",
				"C:/Users/danna/Documents/Unreal Projects/BotTeamsTest/Content/__ExternalActors__/FirstPerson/Maps/FirstPersonMap/3/ZJ/9ENQVJSOXOEVYZAB2QVUGG.uasset",
				"C:/Users/danna/Documents/Unreal Projects/BotTeamsTest/Content/__ExternalActors__/FirstPerson/Maps/FirstPersonMap/7/VX/M6U41RB14L1JN3VY9IS17U.uasset",
				"C:/Users/danna/Documents/Unreal Projects/BotTeamsTest/Content/__ExternalActors__/FirstPerson/Maps/FirstPersonMap/D/Z8/NVUZS2HT9LIDLIWKIKLE41.uasset",
				"C:/Users/danna/Documents/Unreal Projects/BotTeamsTest/Content/__ExternalActors__/FirstPerson/Maps/FirstPersonMap/1/GR/3WRMOS6XBBVDFRK6YWOHD5.uasset",
				"C:/Users/danna/Documents/Unreal Projects/BotTeamsTest/Content/__ExternalActors__/FirstPerson/Maps/FirstPersonMap/5/JC/UNS27OOWHI91X04ARFVUDI.uasset",
				"C:/Users/danna/Documents/Unreal Projects/BotTeamsTest/Content/__ExternalActors__/FirstPerson/Maps/FirstPersonMap/0/YY/0YE9ET4W1VDDB2WM1DQALD.uasset",
				"C:/Users/danna/Documents/Unreal Projects/BotTeamsTest/Content/__ExternalActors__/FirstPerson/Maps/FirstPersonMap/4/G6/R1K44OXG29X7M91X6H7YXX.uasset",
				"C:/Users/danna/Documents/Unreal Projects/BotTeamsTest/Content/__ExternalActors__/FirstPerson/Maps/FirstPersonMap/9/XK/AL8B6JGHH0LI5Z12O42AVW.uasset",
				"C:/Users/danna/Documents/Unreal Projects/BotTeamsTest/Content/__ExternalActors__/FirstPerson/Maps/FirstPersonMap/0/L9/JIWLOMZLFJTY9PRE494OPB.uasset",
				"C:/Users/danna/Documents/Unreal Projects/BotTeamsTest/Content/__ExternalActors__/FirstPerson/Maps/FirstPersonMap/2/1M/C4AY6V331NP5HLCAGYABQC.uasset",
				"C:/Users/danna/Documents/Unreal Projects/BotTeamsTest/Content/__ExternalActors__/FirstPerson/Maps/FirstPersonMap/7/SO/B19O9BE2N82OZK7QXW1CV0.uasset",
				"C:/Users/danna/Documents/Unreal Projects/BotTeamsTest/Content/__ExternalActors__/FirstPerson/Maps/FirstPersonMap/6/OC/YNCZQI7OUB8STILJSK5XPP.uasset",
				"C:/Users/danna/Documents/Unreal Projects/BotTeamsTest/Content/__ExternalActors__/FirstPerson/Maps/FirstPersonMap/4/9D/59SYR88BWZII057VMBV4ZK.uasset",
				"C:/Users/danna/Documents/Unreal Projects/BotTeamsTest/Content/__ExternalActors__/FirstPerson/Maps/FirstPersonMap/3/9G/APXT8Y44G287WSH3W2U7AE.uasset",
				"C:/Users/danna/Documents/Unreal Projects/BotTeamsTest/Content/__ExternalActors__/FirstPerson/Maps/FirstPersonMap/0/ZA/I7XUDCMXFBMNC0Z8U8RV7D.uasset",
				"C:/Users/danna/Documents/Unreal Projects/BotTeamsTest/Content/__ExternalActors__/FirstPerson/Maps/FirstPersonMap/0/DN/XE6TPCRDOO0KBAUCMEQ7L2.uasset",
				"C:/Users/danna/Documents/Unreal Projects/BotTeamsTest/Content/__ExternalActors__/FirstPerson/Maps/FirstPersonMap/1/5S/XI2VZKVKG75S20MAPYVMD4.uasset",
				"C:/Users/danna/Documents/Unreal Projects/BotTeamsTest/Content/__ExternalActors__/FirstPerson/Maps/FirstPersonMap/2/W1/QVBU0V0VRV4PKZ3FWPPRGY.uasset",
				"C:/Users/danna/Documents/Unreal Projects/BotTeamsTest/Content/__ExternalActors__/FirstPerson/Maps/FirstPersonMap/5/QR/FW7L5A1G4OTPVR0WXMPJA0.uasset",
				"C:/Users/danna/Documents/Unreal Projects/BotTeamsTest/Content/__ExternalActors__/FirstPerson/Maps/FirstPersonMap/9/KM/0M7LT77CU6ARFJZL5SZ8F2.uasset",
				"C:/Users/danna/Documents/Unreal Projects/BotTeamsTest/Content/__ExternalActors__/FirstPerson/Maps/FirstPersonMap/4/ZE/C6B2E0CWH4JBDIFMJT518A.uasset",
				"C:/Users/danna/Documents/Unreal Projects/BotTeamsTest/Content/__ExternalActors__/FirstPerson/Maps/FirstPersonMap/B/48/O9WDE40WHLSRG0CDWTNH8M.uasset",
				"C:/Users/danna/Documents/Unreal Projects/BotTeamsTest/Content/__ExternalActors__/FirstPerson/Maps/FirstPersonMap/9/C8/LY3FEITFIZ4E1VQP17252C.uasset",
				"C:/Users/danna/Documents/Unreal Projects/BotTeamsTest/Content/__ExternalActors__/FirstPerson/Maps/FirstPersonMap/C/5Z/6A6A26JO5TQG5MR2PO6I89.uasset",
				"C:/Users/danna/Documents/Unreal Projects/BotTeamsTest/Content/__ExternalActors__/FirstPerson/Maps/FirstPersonMap/5/Y6/D4STW3VSQB6NCREXI4F2QW.uasset",
				"C:/Users/danna/Documents/Unreal Projects/BotTeamsTest/Content/FirstPerson/Blueprints/BP_TeamsGameMode.uasset",
				"C:/Users/danna/Documents/Unreal Projects/BotTeamsTest/Content/FirstPerson/Maps/FirstPersonMap.umap",
				"C:/Users/danna/Documents/Unreal Projects/BotTeamsTest/Content/__ExternalActors__/FirstPerson/Maps/FirstPersonMap/2/43/EUFQZ4DS7FFMBZR5D5B09B.uasset",
				"C:/Users/danna/Documents/Unreal Projects/BotTeamsTest/Content/__ExternalActors__/FirstPerson/Maps/FirstPersonMap/E/X3/VSJUIF57M5BH6KWN3PMHSM.uasset",
				"C:/Users/danna/Documents/Unreal Projects/BotTeamsTest/Content/__ExternalActors__/FirstPerson/Maps/FirstPersonMap/2/KZ/ZDACUKEU50VQKXUFQXZF8S.uasset",
				"C:/Users/danna/Documents/Unreal Projects/BotTeamsTest/Content/AI/Behavior/BT_Main.uasset",
				"C:/Users/danna/Documents/Unreal Projects/BotTeamsTest/Content/__ExternalActors__/FirstPerson/Maps/FirstPersonMap/5/KN/DOFCLTOEPJ860OF0Q2GABP.uasset",
				"C:/Users/danna/Documents/Unreal Projects/BotTeamsTest/Content/__ExternalActors__/FirstPerson/Maps/FirstPersonMap/A/RJ/Z7CLKO8GGJ7RXH5PUAF4T4.uasset",
				"C:/Users/danna/Documents/Unreal Projects/BotTeamsTest/Content/__ExternalActors__/FirstPerson/Maps/FirstPersonMap/1/FH/WURFHDAEYU4741CRXY0X8R.uasset",
				"C:/Users/danna/Documents/Unreal Projects/BotTeamsTest/Content/__ExternalActors__/FirstPerson/Maps/FirstPersonMap/5/43/496RU9OLFB50U5LVGC020K.uasset",
				"C:/Users/danna/Documents/Unreal Projects/BotTeamsTest/Content/__ExternalActors__/FirstPerson/Maps/FirstPersonMap/A/6M/WAFMNXSZNDKQNUQPLCF4NK.uasset",
				"C:/Users/danna/Documents/Unreal Projects/BotTeamsTest/Content/__ExternalActors__/FirstPerson/Maps/FirstPersonMap/A/MK/FZ79BLKFMC1PDUHKQSMA4Y.uasset",
				"C:/Users/danna/Documents/Unreal Projects/BotTeamsTest/Content/__ExternalActors__/FirstPerson/Maps/FirstPersonMap/0/50/0ZTOT1D4X40TYOPFRTJDMN.uasset",
				"C:/Users/danna/Documents/Unreal Projects/BotTeamsTest/Content/__ExternalActors__/FirstPerson/Maps/FirstPersonMap/B/EF/G3O7YJR3QU51OHQGRYB635.uasset",
				"C:/Users/danna/Documents/Unreal Projects/BotTeamsTest/Content/__ExternalActors__/FirstPerson/Maps/FirstPersonMap/5/DI/1JZHHCOBVQ2F5XRUWSES1X.uasset",
				"C:/Users/danna/Documents/Unreal Projects/BotTeamsTest/Content/__ExternalActors__/FirstPerson/Maps/FirstPersonMap/1/2J/R4MRTH8FEAO7ML1BCJFIZ2.uasset",
				"C:/Users/danna/Documents/Unreal Projects/BotTeamsTest/Content/__ExternalActors__/FirstPerson/Maps/FirstPersonMap/4/PT/ZXUQMNLL9GZ2UNQ5D0R4A4.uasset",
				"C:/Users/danna/Documents/Unreal Projects/BotTeamsTest/Content/__ExternalActors__/FirstPerson/Maps/FirstPersonMap/3/0O/4IRR0TBO7VGKMMYSZRQTB1.uasset",
				"C:/Users/danna/Documents/Unreal Projects/BotTeamsTest/Content/__ExternalActors__/FirstPerson/Maps/FirstPersonMap/8/CF/ZNIOCRD90Z70MMV9NMW778.uasset",
				"C:/Users/danna/Documents/Unreal Projects/BotTeamsTest/Content/__ExternalActors__/FirstPerson/Maps/FirstPersonMap/8/Y4/KY9ZXT77SAVGWBRTNCFCSC.uasset",
				"C:/Users/danna/Documents/Unreal Projects/BotTeamsTest/Content/__ExternalActors__/FirstPerson/Maps/FirstPersonMap/0/NB/NWWEVRQSGT6ARVZ8HQLCM9.uasset",
				"C:/Users/danna/Documents/Unreal Projects/BotTeamsTest/Content/__ExternalActors__/FirstPerson/Maps/FirstPersonMap/7/GI/GZM47KS5FPIQH5TLSYC1ME.uasset",
				"C:/Users/danna/Documents/Unreal Projects/BotTeamsTest/Content/__ExternalActors__/FirstPerson/Maps/FirstPersonMap/4/G2/DXY1ROMU8NVTUPH999VNGV.uasset",
				"C:/Users/danna/Documents/Unreal Projects/BotTeamsTest/Content/__ExternalActors__/FirstPerson/Maps/FirstPersonMap/8/80/RCXALNT3NG94XMV0V6D4XE.uasset",
				"C:/Users/danna/Documents/Unreal Projects/BotTeamsTest/Content/__ExternalActors__/FirstPerson/Maps/FirstPersonMap/1/OD/YPSPM063O6XAJVKSDHY2JX.uasset",
				"C:/Users/danna/Documents/Unreal Projects/BotTeamsTest/Content/__ExternalActors__/FirstPerson/Maps/FirstPersonMap/4/E5/6XON0XLIRNWJCBCE62P2VV.uasset",
				"C:/Users/danna/Documents/Unreal Projects/BotTeamsTest/Content/__ExternalActors__/FirstPerson/Maps/FirstPersonMap/B/YQ/KT6JL4FVCNJJ9VFOCSF32J.uasset",
				"C:/Users/danna/Documents/Unreal Projects/BotTeamsTest/Content/__ExternalActors__/FirstPerson/Maps/FirstPersonMap/A/2W/U0XT0R08XQA6C15NK8ILFA.uasset",
				"C:/Users/danna/Documents/Unreal Projects/BotTeamsTest/Content/__ExternalActors__/FirstPerson/Maps/FirstPersonMap/3/C8/Z38FT77DKZLKDXTQ7PZNM4.uasset",
				"C:/Users/danna/Documents/Unreal Projects/BotTeamsTest/Content/__ExternalActors__/FirstPerson/Maps/FirstPersonMap/C/KM/S21DAZBNJOV8P1GOVQXNZJ.uasset",
				"C:/Users/danna/Documents/Unreal Projects/BotTeamsTest/Content/__ExternalActors__/FirstPerson/Maps/FirstPersonMap/0/KA/T99YOXR9H7IKDH3DYR4SXL.uasset",
				"C:/Users/danna/Documents/Unreal Projects/BotTeamsTest/Content/__ExternalActors__/FirstPerson/Maps/FirstPersonMap/6/CO/WOK07BCEZMV4OYL10VUGL5.uasset",
				"C:/Users/danna/Documents/Unreal Projects/BotTeamsTest/Content/__ExternalActors__/FirstPerson/Maps/FirstPersonMap/6/NS/3HD5B8RUVVZIE68GKNSNC2.uasset",
				"C:/Users/danna/Documents/Unreal Projects/BotTeamsTest/Content/__ExternalActors__/FirstPerson/Maps/FirstPersonMap/B/KX/5G4L8DNW8LTCDW0QR9JPEC.uasset",
				"C:/Users/danna/Documents/Unreal Projects/BotTeamsTest/Content/__ExternalActors__/FirstPerson/Maps/FirstPersonMap/D/E9/ZXEFUCVPME0Y2X85U445GA.uasset",
				"C:/Users/danna/Documents/Unreal Projects/BotTeamsTest/Content/__ExternalActors__/FirstPerson/Maps/FirstPersonMap/D/DR/DYDQFLGN7MNCPD7PPM99T4.uasset",
				"C:/Users/danna/Documents/Unreal Projects/BotTeamsTest/Content/__ExternalActors__/FirstPerson/Maps/FirstPersonMap/6/S7/H65GAUZN44ZBNB27D5C6ZI.uasset",
				"C:/Users/danna/Documents/Unreal Projects/BotTeamsTest/Content/__ExternalActors__/FirstPerson/Maps/FirstPersonMap/0/5B/CFF981R1UHOT2V26LFQAAW.uasset",
				"C:/Users/danna/Documents/Unreal Projects/BotTeamsTest/Content/AI/Blueprints/BP_AIController_Interface.uasset"
			]
		}
	]
}